{
	"id": "05c97d73424aa79c29ba14b837ff2a58",
	"_format": "hh-sol-build-info-1",
	"solcVersion": "0.8.4",
	"solcLongVersion": "0.8.4+commit.c7e474f2",
	"input": {
		"language": "Solidity",
		"sources": {
			"IStripsAndCouponsMinterDEFCYA.sol": {
				"content": "//SPDX-License-Identifier: none\npragma solidity ^0.8.4;\n\ninterface IStripsAndCouponsMinterDEFCYA{\n    function getBondMinter() external view returns(address);\n    function checkAdminPrivileges(address senderToCheck) external view returns (bool);\n}"
			}
		},
		"settings": {
			"optimizer": {
				"enabled": true,
				"runs": 200
			},
			"outputSelection": {
				"*": {
					"": [
						"ast"
					],
					"*": [
						"abi",
						"metadata",
						"devdoc",
						"userdoc",
						"evm.legacyAssembly",
						"evm.bytecode",
						"evm.deployedBytecode",
						"evm.methodIdentifiers",
						"evm.gasEstimates",
						"evm.assembly"
					]
				}
			}
		}
	},
	"output": {
		"contracts": {
			"IStripsAndCouponsMinterDEFCYA.sol": {
				"IStripsAndCouponsMinterDEFCYA": {
					"abi": [
						{
							"inputs": [
								{
									"internalType": "address",
									"name": "senderToCheck",
									"type": "address"
								}
							],
							"name": "checkAdminPrivileges",
							"outputs": [
								{
									"internalType": "bool",
									"name": "",
									"type": "bool"
								}
							],
							"stateMutability": "view",
							"type": "function"
						},
						{
							"inputs": [],
							"name": "getBondMinter",
							"outputs": [
								{
									"internalType": "address",
									"name": "",
									"type": "address"
								}
							],
							"stateMutability": "view",
							"type": "function"
						}
					],
					"devdoc": {
						"kind": "dev",
						"methods": {},
						"version": 1
					},
					"evm": {
						"assembly": "",
						"bytecode": {
							"generatedSources": [],
							"linkReferences": {},
							"object": "",
							"opcodes": "",
							"sourceMap": ""
						},
						"deployedBytecode": {
							"generatedSources": [],
							"immutableReferences": {},
							"linkReferences": {},
							"object": "",
							"opcodes": "",
							"sourceMap": ""
						},
						"gasEstimates": null,
						"legacyAssembly": null,
						"methodIdentifiers": {
							"checkAdminPrivileges(address)": "55f3ef7a",
							"getBondMinter()": "88a6c1c2"
						}
					},
					"metadata": "{\"compiler\":{\"version\":\"0.8.4+commit.c7e474f2\"},\"language\":\"Solidity\",\"output\":{\"abi\":[{\"inputs\":[{\"internalType\":\"address\",\"name\":\"senderToCheck\",\"type\":\"address\"}],\"name\":\"checkAdminPrivileges\",\"outputs\":[{\"internalType\":\"bool\",\"name\":\"\",\"type\":\"bool\"}],\"stateMutability\":\"view\",\"type\":\"function\"},{\"inputs\":[],\"name\":\"getBondMinter\",\"outputs\":[{\"internalType\":\"address\",\"name\":\"\",\"type\":\"address\"}],\"stateMutability\":\"view\",\"type\":\"function\"}],\"devdoc\":{\"kind\":\"dev\",\"methods\":{},\"version\":1},\"userdoc\":{\"kind\":\"user\",\"methods\":{},\"version\":1}},\"settings\":{\"compilationTarget\":{\"IStripsAndCouponsMinterDEFCYA.sol\":\"IStripsAndCouponsMinterDEFCYA\"},\"evmVersion\":\"istanbul\",\"libraries\":{},\"metadata\":{\"bytecodeHash\":\"ipfs\"},\"optimizer\":{\"enabled\":true,\"runs\":200},\"remappings\":[]},\"sources\":{\"IStripsAndCouponsMinterDEFCYA.sol\":{\"keccak256\":\"0x09d446657ee1f244cbcc46bc99ecf7b9ceaf543ea6bf024a2dda9372a18c56e2\",\"license\":\"none\",\"urls\":[\"bzz-raw://16a9865b84effb92ac05b715b4d5ef0b7ff632a08e40606f941036ca1d6b8683\",\"dweb:/ipfs/QmNtzaMuEBh72wfBYbxgPe3yqMNN13bb6eYXvVuvWC9Hpf\"]}},\"version\":1}",
					"userdoc": {
						"kind": "user",
						"methods": {},
						"version": 1
					}
				}
			}
		},
		"sources": {
			"IStripsAndCouponsMinterDEFCYA.sol": {
				"ast": {
					"absolutePath": "IStripsAndCouponsMinterDEFCYA.sol",
					"exportedSymbols": {
						"IStripsAndCouponsMinterDEFCYA": [
							14
						]
					},
					"id": 15,
					"license": "none",
					"nodeType": "SourceUnit",
					"nodes": [
						{
							"id": 1,
							"literals": [
								"solidity",
								"^",
								"0.8",
								".4"
							],
							"nodeType": "PragmaDirective",
							"src": "32:23:0"
						},
						{
							"abstract": false,
							"baseContracts": [],
							"contractDependencies": [],
							"contractKind": "interface",
							"fullyImplemented": false,
							"id": 14,
							"linearizedBaseContracts": [
								14
							],
							"name": "IStripsAndCouponsMinterDEFCYA",
							"nameLocation": "67:29:0",
							"nodeType": "ContractDefinition",
							"nodes": [
								{
									"functionSelector": "88a6c1c2",
									"id": 6,
									"implemented": false,
									"kind": "function",
									"modifiers": [],
									"name": "getBondMinter",
									"nameLocation": "111:13:0",
									"nodeType": "FunctionDefinition",
									"parameters": {
										"id": 2,
										"nodeType": "ParameterList",
										"parameters": [],
										"src": "124:2:0"
									},
									"returnParameters": {
										"id": 5,
										"nodeType": "ParameterList",
										"parameters": [
											{
												"constant": false,
												"id": 4,
												"mutability": "mutable",
												"name": "",
												"nameLocation": "-1:-1:-1",
												"nodeType": "VariableDeclaration",
												"scope": 6,
												"src": "149:7:0",
												"stateVariable": false,
												"storageLocation": "default",
												"typeDescriptions": {
													"typeIdentifier": "t_address",
													"typeString": "address"
												},
												"typeName": {
													"id": 3,
													"name": "address",
													"nodeType": "ElementaryTypeName",
													"src": "149:7:0",
													"stateMutability": "nonpayable",
													"typeDescriptions": {
														"typeIdentifier": "t_address",
														"typeString": "address"
													}
												},
												"visibility": "internal"
											}
										],
										"src": "148:9:0"
									},
									"scope": 14,
									"src": "102:56:0",
									"stateMutability": "view",
									"virtual": false,
									"visibility": "external"
								},
								{
									"functionSelector": "55f3ef7a",
									"id": 13,
									"implemented": false,
									"kind": "function",
									"modifiers": [],
									"name": "checkAdminPrivileges",
									"nameLocation": "172:20:0",
									"nodeType": "FunctionDefinition",
									"parameters": {
										"id": 9,
										"nodeType": "ParameterList",
										"parameters": [
											{
												"constant": false,
												"id": 8,
												"mutability": "mutable",
												"name": "senderToCheck",
												"nameLocation": "201:13:0",
												"nodeType": "VariableDeclaration",
												"scope": 13,
												"src": "193:21:0",
												"stateVariable": false,
												"storageLocation": "default",
												"typeDescriptions": {
													"typeIdentifier": "t_address",
													"typeString": "address"
												},
												"typeName": {
													"id": 7,
													"name": "address",
													"nodeType": "ElementaryTypeName",
													"src": "193:7:0",
													"stateMutability": "nonpayable",
													"typeDescriptions": {
														"typeIdentifier": "t_address",
														"typeString": "address"
													}
												},
												"visibility": "internal"
											}
										],
										"src": "192:23:0"
									},
									"returnParameters": {
										"id": 12,
										"nodeType": "ParameterList",
										"parameters": [
											{
												"constant": false,
												"id": 11,
												"mutability": "mutable",
												"name": "",
												"nameLocation": "-1:-1:-1",
												"nodeType": "VariableDeclaration",
												"scope": 13,
												"src": "239:4:0",
												"stateVariable": false,
												"storageLocation": "default",
												"typeDescriptions": {
													"typeIdentifier": "t_bool",
													"typeString": "bool"
												},
												"typeName": {
													"id": 10,
													"name": "bool",
													"nodeType": "ElementaryTypeName",
													"src": "239:4:0",
													"typeDescriptions": {
														"typeIdentifier": "t_bool",
														"typeString": "bool"
													}
												},
												"visibility": "internal"
											}
										],
										"src": "238:6:0"
									},
									"scope": 14,
									"src": "163:82:0",
									"stateMutability": "view",
									"virtual": false,
									"visibility": "external"
								}
							],
							"scope": 15,
							"src": "57:190:0",
							"usedErrors": []
						}
					],
					"src": "32:215:0"
				},
				"id": 0
			}
		}
	}
}