{
	"deploy": {
		"VM:-": {
			"linkReferences": {},
			"autoDeployLib": true
		},
		"main:1": {
			"linkReferences": {},
			"autoDeployLib": true
		},
		"ropsten:3": {
			"linkReferences": {},
			"autoDeployLib": true
		},
		"rinkeby:4": {
			"linkReferences": {},
			"autoDeployLib": true
		},
		"kovan:42": {
			"linkReferences": {},
			"autoDeployLib": true
		},
		"görli:5": {
			"linkReferences": {},
			"autoDeployLib": true
		},
		"Custom": {
			"linkReferences": {},
			"autoDeployLib": true
		}
	},
	"data": {
		"bytecode": {
			"generatedSources": [],
			"linkReferences": {},
			"object": "",
			"opcodes": "",
			"sourceMap": ""
		},
		"deployedBytecode": {
			"generatedSources": [],
			"immutableReferences": {},
			"linkReferences": {},
			"object": "",
			"opcodes": "",
			"sourceMap": ""
		},
		"gasEstimates": null,
		"methodIdentifiers": {
			"checkAddressOfBond(uint256)": "61838cf3",
			"checkAddressOfCoupon(uint256)": "b5b7adc6",
			"checkAddressOfStripe(uint256)": "d1b941ff",
			"checkAdminPrivilages(address)": "350ade50",
			"checkIfUserBondCanMove(address)": "6e77eee9",
			"checkIfUserStripsAndCouponsCanMove(address)": "64439bc1",
			"checkIndexOfPoolInCircle(uint256)": "7da8914f",
			"checkStateOfBond(uint256)": "75ffea05",
			"setPairBondPool(uint256,uint256)": "1351a467"
		}
	},
	"abi": [
		{
			"inputs": [
				{
					"internalType": "uint256",
					"name": "BondIdtoCheck",
					"type": "uint256"
				}
			],
			"name": "checkAddressOfBond",
			"outputs": [
				{
					"internalType": "address",
					"name": "",
					"type": "address"
				}
			],
			"stateMutability": "view",
			"type": "function"
		},
		{
			"inputs": [
				{
					"internalType": "uint256",
					"name": "BondIdtoCheck",
					"type": "uint256"
				}
			],
			"name": "checkAddressOfCoupon",
			"outputs": [
				{
					"internalType": "address",
					"name": "",
					"type": "address"
				}
			],
			"stateMutability": "view",
			"type": "function"
		},
		{
			"inputs": [
				{
					"internalType": "uint256",
					"name": "BondIdtoCheck",
					"type": "uint256"
				}
			],
			"name": "checkAddressOfStripe",
			"outputs": [
				{
					"internalType": "address",
					"name": "",
					"type": "address"
				}
			],
			"stateMutability": "view",
			"type": "function"
		},
		{
			"inputs": [
				{
					"internalType": "address",
					"name": "SenderToCheck",
					"type": "address"
				}
			],
			"name": "checkAdminPrivilages",
			"outputs": [
				{
					"internalType": "bool",
					"name": "",
					"type": "bool"
				}
			],
			"stateMutability": "view",
			"type": "function"
		},
		{
			"inputs": [
				{
					"internalType": "address",
					"name": "UserTocheck",
					"type": "address"
				}
			],
			"name": "checkIfUserBondCanMove",
			"outputs": [
				{
					"internalType": "bool",
					"name": "",
					"type": "bool"
				}
			],
			"stateMutability": "view",
			"type": "function"
		},
		{
			"inputs": [
				{
					"internalType": "address",
					"name": "UserTocheck",
					"type": "address"
				}
			],
			"name": "checkIfUserStripsAndCouponsCanMove",
			"outputs": [
				{
					"internalType": "bool",
					"name": "",
					"type": "bool"
				}
			],
			"stateMutability": "view",
			"type": "function"
		},
		{
			"inputs": [
				{
					"internalType": "uint256",
					"name": "BondIdtoCheck",
					"type": "uint256"
				}
			],
			"name": "checkIndexOfPoolInCircle",
			"outputs": [
				{
					"internalType": "uint256",
					"name": "",
					"type": "uint256"
				}
			],
			"stateMutability": "view",
			"type": "function"
		},
		{
			"inputs": [
				{
					"internalType": "uint256",
					"name": "BondIdtoCheck",
					"type": "uint256"
				}
			],
			"name": "checkStateOfBond",
			"outputs": [
				{
					"internalType": "uint256",
					"name": "",
					"type": "uint256"
				}
			],
			"stateMutability": "view",
			"type": "function"
		},
		{
			"inputs": [
				{
					"internalType": "uint256",
					"name": "BondIdtoset",
					"type": "uint256"
				},
				{
					"internalType": "uint256",
					"name": "poolIdToSet",
					"type": "uint256"
				}
			],
			"name": "setPairBondPool",
			"outputs": [
				{
					"internalType": "uint256",
					"name": "",
					"type": "uint256"
				},
				{
					"internalType": "uint256",
					"name": "",
					"type": "uint256"
				}
			],
			"stateMutability": "nonpayable",
			"type": "function"
		}
	]
}