{
	"compiler": {
		"version": "0.8.4+commit.c7e474f2"
	},
	"language": "Solidity",
	"output": {
		"abi": [
			{
				"inputs": [
					{
						"internalType": "uint256",
						"name": "BondIdtoCheck",
						"type": "uint256"
					}
				],
				"name": "checkAddressOfBond",
				"outputs": [
					{
						"internalType": "address",
						"name": "",
						"type": "address"
					}
				],
				"stateMutability": "view",
				"type": "function"
			},
			{
				"inputs": [
					{
						"internalType": "uint256",
						"name": "BondIdtoCheck",
						"type": "uint256"
					}
				],
				"name": "checkAddressOfCoupon",
				"outputs": [
					{
						"internalType": "address",
						"name": "",
						"type": "address"
					}
				],
				"stateMutability": "view",
				"type": "function"
			},
			{
				"inputs": [
					{
						"internalType": "uint256",
						"name": "BondIdtoCheck",
						"type": "uint256"
					}
				],
				"name": "checkAddressOfStripe",
				"outputs": [
					{
						"internalType": "address",
						"name": "",
						"type": "address"
					}
				],
				"stateMutability": "view",
				"type": "function"
			},
			{
				"inputs": [
					{
						"internalType": "address",
						"name": "SenderToCheck",
						"type": "address"
					}
				],
				"name": "checkAdminPrivilages",
				"outputs": [
					{
						"internalType": "bool",
						"name": "",
						"type": "bool"
					}
				],
				"stateMutability": "view",
				"type": "function"
			},
			{
				"inputs": [
					{
						"internalType": "address",
						"name": "UserTocheck",
						"type": "address"
					}
				],
				"name": "checkIfUserBondCanMove",
				"outputs": [
					{
						"internalType": "bool",
						"name": "",
						"type": "bool"
					}
				],
				"stateMutability": "view",
				"type": "function"
			},
			{
				"inputs": [
					{
						"internalType": "address",
						"name": "UserTocheck",
						"type": "address"
					}
				],
				"name": "checkIfUserStripsAndCouponsCanMove",
				"outputs": [
					{
						"internalType": "bool",
						"name": "",
						"type": "bool"
					}
				],
				"stateMutability": "view",
				"type": "function"
			},
			{
				"inputs": [
					{
						"internalType": "uint256",
						"name": "BondIdtoCheck",
						"type": "uint256"
					}
				],
				"name": "checkIndexOfPoolInCircle",
				"outputs": [
					{
						"internalType": "uint256",
						"name": "",
						"type": "uint256"
					}
				],
				"stateMutability": "view",
				"type": "function"
			},
			{
				"inputs": [
					{
						"internalType": "uint256",
						"name": "BondIdtoCheck",
						"type": "uint256"
					}
				],
				"name": "checkStateOfBond",
				"outputs": [
					{
						"internalType": "uint256",
						"name": "",
						"type": "uint256"
					}
				],
				"stateMutability": "view",
				"type": "function"
			},
			{
				"inputs": [
					{
						"internalType": "uint256",
						"name": "BondIdtoset",
						"type": "uint256"
					},
					{
						"internalType": "uint256",
						"name": "poolIdToSet",
						"type": "uint256"
					}
				],
				"name": "setPairBondPool",
				"outputs": [
					{
						"internalType": "uint256",
						"name": "",
						"type": "uint256"
					},
					{
						"internalType": "uint256",
						"name": "",
						"type": "uint256"
					}
				],
				"stateMutability": "nonpayable",
				"type": "function"
			}
		],
		"devdoc": {
			"kind": "dev",
			"methods": {},
			"version": 1
		},
		"userdoc": {
			"kind": "user",
			"methods": {},
			"version": 1
		}
	},
	"settings": {
		"compilationTarget": {
			"IMinterSecurityTokensDEFYCA.sol": "IMinterSecurityTokensDEFYCA"
		},
		"evmVersion": "istanbul",
		"libraries": {},
		"metadata": {
			"bytecodeHash": "ipfs"
		},
		"optimizer": {
			"enabled": true,
			"runs": 200
		},
		"remappings": []
	},
	"sources": {
		"IMinterSecurityTokensDEFYCA.sol": {
			"keccak256": "0x5ec87451e0b20b39d2c47ca826425be606f7a449f8de3330c8b6ea4861ab9df6",
			"license": "None",
			"urls": [
				"bzz-raw://adfbc2a114c52c702b9d2b46469023c8ccae6a9ec99e0c3a0841129caaa9fffa",
				"dweb:/ipfs/QmS6fVVvr2M9YMh1797bEZA3zFj5ya399YfTLS6tSimGMs"
			]
		}
	},
	"version": 1
}