{
	"compiler": {
		"version": "0.8.4+commit.c7e474f2"
	},
	"language": "Solidity",
	"output": {
		"abi": [
			{
				"inputs": [
					{
						"internalType": "uint256",
						"name": "_value",
						"type": "uint256"
					},
					{
						"internalType": "uint256",
						"name": "_bondIndex",
						"type": "uint256"
					},
					{
						"internalType": "address",
						"name": "_behalfOf",
						"type": "address"
					}
				],
				"name": "mintStripsAndCoupons",
				"outputs": [
					{
						"internalType": "address",
						"name": "CouponAdr",
						"type": "address"
					},
					{
						"internalType": "address",
						"name": "StripAdr",
						"type": "address"
					}
				],
				"stateMutability": "nonpayable",
				"type": "function"
			}
		],
		"devdoc": {
			"kind": "dev",
			"methods": {},
			"version": 1
		},
		"userdoc": {
			"kind": "user",
			"methods": {},
			"version": 1
		}
	},
	"settings": {
		"compilationTarget": {
			"simplifiedBondMinterAndDataCollector.sol": "IstripCouponMinter"
		},
		"evmVersion": "istanbul",
		"libraries": {},
		"metadata": {
			"bytecodeHash": "ipfs"
		},
		"optimizer": {
			"enabled": true,
			"runs": 200
		},
		"remappings": []
	},
	"sources": {
		"@openzeppelin/contracts/token/ERC20/ERC20.sol": {
			"keccak256": "0xdadd41acb749920eccf40aeaa8d291adf9751399a7343561bad13e7a8d99be0b",
			"license": "MIT",
			"urls": [
				"bzz-raw://12af4ac016f9fdf3be5d15824f4292272aa11f6b2e0192a0f7320f5ad49bbbf0",
				"dweb:/ipfs/QmRXMpdqCgA3TYuYxBodqs5p9jGbnMW6xa2gvjppvq4TWk"
			]
		},
		"@openzeppelin/contracts/token/ERC20/IERC20.sol": {
			"keccak256": "0xbbc8ac883ac3c0078ce5ad3e288fbb3ffcc8a30c3a98c0fda0114d64fc44fca2",
			"license": "MIT",
			"urls": [
				"bzz-raw://87a7a5d2f6f63f84598af02b8c50ca2df2631cb8ba2453e8d95fcb17e4be9824",
				"dweb:/ipfs/QmR76hqtAcRqoFj33tmNjcWTLrgNsAaakYwnKZ8zoJtKei"
			]
		},
		"@openzeppelin/contracts/token/ERC20/extensions/ERC20Burnable.sol": {
			"keccak256": "0x0d19410453cda55960a818e02bd7c18952a5c8fe7a3036e81f0d599f34487a7b",
			"license": "MIT",
			"urls": [
				"bzz-raw://4c0f62d3d5bef22b5ca00cc3903e7de6152cb68d2d22401a463f373cda54c00f",
				"dweb:/ipfs/QmSfzjZux7LC7NW2f7rjCXTHeFMUCWERqDkhpCTBy7kxTe"
			]
		},
		"@openzeppelin/contracts/token/ERC20/extensions/IERC20Metadata.sol": {
			"keccak256": "0x8de418a5503946cabe331f35fe242d3201a73f67f77aaeb7110acb1f30423aca",
			"license": "MIT",
			"urls": [
				"bzz-raw://5a376d3dda2cb70536c0a45c208b29b34ac560c4cb4f513a42079f96ba47d2dd",
				"dweb:/ipfs/QmZQg6gn1sUpM8wHzwNvSnihumUCAhxD119MpXeKp8B9s8"
			]
		},
		"@openzeppelin/contracts/token/ERC20/extensions/draft-ERC20Permit.sol": {
			"keccak256": "0x8a763ef5625e97f5287c7ddd5ede434129069e15d83bf0a68ad10a5e56ccb439",
			"license": "MIT",
			"urls": [
				"bzz-raw://6a3f75a7be83ce0fb636d3835e43348243d4ced9df08fb9ab6cf879ccf4d81b7",
				"dweb:/ipfs/QmauKgQQthadf1DLEbfkDWwNGcJ1doRH21EXSuacSDWGWt"
			]
		},
		"@openzeppelin/contracts/token/ERC20/extensions/draft-IERC20Permit.sol": {
			"keccak256": "0xf41ca991f30855bf80ffd11e9347856a517b977f0a6c2d52e6421a99b7840329",
			"license": "MIT",
			"urls": [
				"bzz-raw://b2717fd2bdac99daa960a6de500754ea1b932093c946388c381da48658234b95",
				"dweb:/ipfs/QmP6QVMn6UeA3ByahyJbYQr5M6coHKBKsf3ySZSfbyA8R7"
			]
		},
		"@openzeppelin/contracts/utils/Context.sol": {
			"keccak256": "0xe2e337e6dde9ef6b680e07338c493ebea1b5fd09b43424112868e9cc1706bca7",
			"license": "MIT",
			"urls": [
				"bzz-raw://6df0ddf21ce9f58271bdfaa85cde98b200ef242a05a3f85c2bc10a8294800a92",
				"dweb:/ipfs/QmRK2Y5Yc6BK7tGKkgsgn3aJEQGi5aakeSPZvS65PV8Xp3"
			]
		},
		"@openzeppelin/contracts/utils/Counters.sol": {
			"keccak256": "0xf0018c2440fbe238dd3a8732fa8e17a0f9dce84d31451dc8a32f6d62b349c9f1",
			"license": "MIT",
			"urls": [
				"bzz-raw://59e1c62884d55b70f3ae5432b44bb3166ad71ae3acd19c57ab6ddc3c87c325ee",
				"dweb:/ipfs/QmezuXg5GK5oeA4F91EZhozBFekhq5TD966bHPH18cCqhu"
			]
		},
		"@openzeppelin/contracts/utils/Strings.sol": {
			"keccak256": "0x32c202bd28995dd20c4347b7c6467a6d3241c74c8ad3edcbb610cd9205916c45",
			"license": "MIT",
			"urls": [
				"bzz-raw://8179c356adb19e70d6b31a1eedc8c5c7f0c00e669e2540f4099e3844c6074d30",
				"dweb:/ipfs/QmWFbivarEobbqhS1go64ootVuHfVohBseerYy9FTEd1W2"
			]
		},
		"@openzeppelin/contracts/utils/cryptography/ECDSA.sol": {
			"keccak256": "0x3c07f43e60e099b3b157243b3152722e73b80eeb7985c2cd73712828d7f7da29",
			"license": "MIT",
			"urls": [
				"bzz-raw://466ffb5a6e3bd65fffd996f9287ffd240ea21588a338c6efe143d94eaed014a7",
				"dweb:/ipfs/Qmans3vvPJZcvxe9KLAPc9Xwe4TFVTJdzaQGpi62Vrhoe2"
			]
		},
		"@openzeppelin/contracts/utils/cryptography/draft-EIP712.sol": {
			"keccak256": "0x6688fad58b9ec0286d40fa957152e575d5d8bd4c3aa80985efdb11b44f776ae7",
			"license": "MIT",
			"urls": [
				"bzz-raw://8bc00ab7f133cdaafd212a5cc6a16c8d37319721105d130c8e5af0c4e8f170ba",
				"dweb:/ipfs/QmVmf6LVMfFiEkvKYLzSv3bGHzymEW93AcUuFrNUdY3NtT"
			]
		},
		"interfacesMINTERmaster.sol": {
			"keccak256": "0x7c8ef65778af2de2303eef38dc3724b3537fde705462bcc1b8893ca6710a0a63",
			"license": "none",
			"urls": [
				"bzz-raw://785afba9b171122a577bb24d5d6ad5903a7a78da32cbf538ebfb058e286cad13",
				"dweb:/ipfs/QmP3doimPpyDn7aff3txUGAcURxPDLPN6RuzMhxaSN3EiQ"
			]
		},
		"simplifiedBondMinterAndDataCollector.sol": {
			"keccak256": "0xf0fbd5345806217944e12119108343fc2dce9a1f2700951549081380659f73e4",
			"license": "none",
			"urls": [
				"bzz-raw://b189e610cdfd69fb96ecda5b2d70b80250d968638ec0c63d5cc8e54962ae6af7",
				"dweb:/ipfs/QmeHgFWULyMymitSCcCBXQfzLuzTaMudSLccFE9eVydJXR"
			]
		}
	},
	"version": 1
}